{
  "count": 12,
  "next": "http://schwiftydjango.herokuapp.com/characters/?page=2",
  "previous": null,
  "results": [
    {
      "id": 2,
      "name": "Birdperson",
      "origin": {
        "id": 7,
        "name": "Planet Squanch"
      },
      "image": "https://schwifty-media.s3.amazonaws.com/media/characters/birdperson.jpeg",
      "date_created": "2018-06-03T22:27:32.162507Z",
      "date_modified": "2018-06-03T22:27:32.162578Z"
    },
    {
      "id": 1,
      "name": "Rick Sánchez",
      "origin": {
        "id": 2,
        "name": "Earth (C-137)"
      },
      "image": "https://schwifty-media.s3.amazonaws.com/media/characters/rick-sanchez.jpeg",
      "date_created": "2018-06-03T18:06:23.278544Z",
      "date_modified": "2018-06-03T22:28:17.944660Z"
    },
    {
      "id": 3,
      "name": "Beth Smith",
      "origin": {
        "id": 1,
        "name": "Earth (Replacement Dimension)"
      },
      "image": "https://schwifty-media.s3.amazonaws.com/media/characters/beth-smith.jpeg",
      "date_created": "2018-06-03T22:28:49.172463Z",
      "date_modified": "2018-06-03T22:28:49.172502Z"
    }
  ]
}
